Lecture 11 - ANOVA in class – UMD Biostatistics
…
#| message: false
#| warning: false
#| paged-print: false
c_df <- tibble(
  treatment = rep(c("Control", "Knees", "Eyes"), times = c(8, 7, 7)),
  phase_shift = c(0.53, 0.36, 0.20, -0.37, -0.60, -0.64, -0.68, -1.27,  # Control
                 0.73, 0.31, 0.03, -0.29, -0.56, -0.96, -1.61,          # Knees
                 -0.78, -0.86, -1.35, -1.48, -1.52, -2.04, -2.83)       # Eyes
)

c_df

# A tibble: 22 × 2
   treatment phase_shift
   <chr>           <dbl>
 1 Control          0.53
 2 Control          0.36
 3 Control          0.2 
 4 Control         -0.37
 5 Control         -0.6 
 6 Control         -0.64
 7 Control         -0.68
 8 Control         -1.27
 9 Knees            0.73
10 Knees            0.31
# ℹ 12 more rows
…
